[
    {
        "key": "ctrl+a",
        "command": "cursorHome",
        "when": "textInputFocus"
    },
    {
        "key": "cmd+left",
        "command": "-cursorHome",
        "when": "textInputFocus"
    },
    {
        "key": "ctrl+e",
        "command": "cursorEnd",
        "when": "textInputFocus"
    },
    {
        "key": "cmd+right",
        "command": "-cursorEnd",
        "when": "textInputFocus"
    }
]
